%YAML 1.1
%TAG !u! tag:unity3d.com,2011:
--- !u!1045 &1
EditorBuildSettings:
  m_ObjectHideFlags: 0
  serializedVersion: 2
  m_Scenes:
  - enabled: 1
    path: Assets/Scenes/MainMenu.unity
    guid: 8161eddcd8df0484eb265ed500bfef3a
  - enabled: 1
    path: Assets/Scenes/Final.unity
    guid: 55fba1b84ebf88446a558f6e3cc4e888
  - enabled: 1
    path: Assets/Scenes/GameOver.unity
    guid: 30dfe7fc3d1264c4a989f1bc713ab469
  - enabled: 1
    path: Assets/Scenes/Win.unity
    guid: f869ee4110dc3954da66fa03a3083b2b
  m_configObjects: {}
